Chapter 2 Data Wrangling | Data-Scientific Programming Notes
…
Example 2.1.3

Order the entire baseball tibble from most homeruns to fewest.

Note: we use desc() to sort in descending order. To sort in ascending order, simply put the name of the variable, i.e. HR.

batting %>% arrange(desc(HR))

## # A tibble: 108,789 x 22
##    playerID  yearID stint teamID lgID      G    AB     R     H   X2B   X3B    HR
##    <chr>      <int> <int> <fct>  <fct> <int> <int> <int> <int> <int> <int> <int>
##  1 bondsba01   2001     1 SFN    NL      153   476   129   156    32     2    73
##  2 mcgwima01   1998     1 SLN    NL      155   509   130   152    21     0    70
##  3 sosasa01    1998     1 CHN    NL      159   643   134   198    20     0    66
##  4 mcgwima01   1999     1 SLN    NL      153   521   118   145    21     1    65
##  5 sosasa01    2001     1 CHN    NL      160   577   146   189    34     5    64
##  6 sosasa01    1999     1 CHN    NL      162   625   114   180    24     2    63
##  7 marisro01   1961     1 NYA    AL      161   590   132   159    16     4    61
##  8 ruthba01    1927     1 NYA    AL      151   540   158   192    29     8    60
##  9 ruthba01    1921     1 NYA    AL      152   540   177   204    44    16    59
## 10 stantmi03   2017     1 MIA    NL      159   597   123   168    32     0    59
## # … with 108,779 more rows, and 10 more variables: RBI <int>, SB <int>,
## #   CS <int>, BB <int>, SO <int>, IBB <int>, HBP <int>, SH <int>, SF <int>,
## #   GIDP <int>
…
Practice 2.1.8

Order the rows from most hits in a season to fewest.

#Type code here

Example 2.1.9 Multiple Logicals

The current Washington Nationals franchise previously played in Montreal from 1969-2004, and was known as the Expos. Create a dataset containing statistics for this franchise, including both its time in Montreal, and Washington. Arrange in descending order by number of homeruns.

batting_MON_WAS <- batting %>% filter( (teamID=="MON" & yearID >= 1969 & yearID <= 2004)
                         | (teamID=="WAS" & yearID >= 2005)) %>% arrange(desc(HR))
batting_MON_WAS

## # A tibble: 2,242 x 22
##    playerID  yearID stint teamID lgID      G    AB     R     H   X2B   X3B    HR
##    <chr>      <int> <int> <fct>  <fct> <int> <int> <int> <int> <int> <int> <int>
##  1 soriaal01   2006     1 WAS    NL      159   647   119   179    41     2    46
##  2 guerrvl01   2000     1 MON    NL      154   571   101   197    28    11    44
##  3 guerrvl01   1999     1 MON    NL      160   610   102   193    37     5    42
##  4 harpebr03   2015     1 WAS    NL      153   521   118   172    38     1    42
##  5 guerrvl01   2002     1 MON    NL      161   614   106   206    37     2    39
##  6 guerrvl01   1998     1 MON    NL      159   623   108   202    37     7    38
##  7 dunnad01    2009     1 WAS    NL      159   546    81   146    29     0    38
##  8 dunnad01    2010     1 WAS    NL      158   558    85   145    36     2    38
##  9 rodrihe02   1996     1 MON    NL      145   532    81   147    42     1    36
## 10 zimmery01   2017     1 WAS    NL      144   524    90   159    33     0    36
## # … with 2,232 more rows, and 10 more variables: RBI <int>, SB <int>, CS <int>,
## #   BB <int>, SO <int>, IBB <int>, HBP <int>, SH <int>, SF <int>, GIDP <int>
…
A player's batting average is defined as number of hits (H) divided by number of at-bats (AB).

A player's on-base percentage is defined as number of hits (H), walks (BB), times hit by pitch (HBP), divided by number of at-bats, walks, times hit by pitch, and sacrifice flies (SF).

A player's slugging percentage is defined as singles + 2doubles (X2B) + 3 triples (X3B) + 4 homeruns (HR) divided by number of at-bats.

We'll create each of these variables. Note that since singles is not a variable in the dataset, we'll create it by subtracting doubles, triples, and homeruns from hits.

batting %>% mutate(AVG = H / AB,
                                  OBP = (H + BB + HBP) / (AB + BB + HBP +SF),
                                  X1B = H - X2B - X3B - HR,
                                  SLG = (X1B + 2*X2B + 3*X3B + 4* HR) / AB) %>%
  select(playerID, yearID, teamID, AB, H, HR, BB, HBP, SF, AVG, OBP, SLG)

## # A tibble: 108,789 x 12
##    playerID  yearID teamID    AB     H    HR    BB   HBP    SF   AVG   OBP   SLG
##    <chr>      <int> <fct>  <int> <int> <int> <int> <int> <int> <dbl> <dbl> <dbl>
##  1 abercda01   1871 TRO        4     0     0     0    NA    NA 0        NA 0    
##  2 addybo01    1871 RC1      118    32     0     4    NA    NA 0.271    NA 0.322
##  3 allisar01   1871 CL1      137    40     0     2    NA    NA 0.292    NA 0.394
##  4 allisdo01   1871 WS3      133    44     2     0    NA    NA 0.331    NA 0.481
##  5 ansonca01   1871 RC1      120    39     0     2    NA    NA 0.325    NA 0.467
##  6 armstbo01   1871 FW1       49    11     0     0    NA    NA 0.224    NA 0.306
##  7 barkeal01   1871 RC1        4     1     0     1    NA    NA 0.25     NA 0.25 
##  8 barnero01   1871 BS1      157    63     0    13    NA    NA 0.401    NA 0.580
##  9 barrebi01   1871 FW1        5     1     0     0    NA    NA 0.2      NA 0.4  
## 10 barrofr01   1871 BS1       86    13     0     0    NA    NA 0.151    NA 0.198
## # … with 108,779 more rows

While mutate displays all variables in the dataset, transmute displays only the ones created.

batting %>% transmute(AVG = H / AB,
                                  OBP = (H + BB + HBP) / (AB + BB + HBP +SF),
                                  X1B = H - X2B - X3B - HR,
                                  SLG = (X1B + 2*X2B + 3*X3B + 4* HR) / AB) 

## # A tibble: 108,789 x 4
##      AVG   OBP   X1B   SLG
##    <dbl> <dbl> <int> <dbl>
##  1 0        NA     0 0    
##  2 0.271    NA    26 0.322
##  3 0.292    NA    31 0.394
##  4 0.331    NA    30 0.481
##  5 0.325    NA    25 0.467
##  6 0.224    NA     8 0.306
##  7 0.25     NA     1 0.25 
##  8 0.401    NA    44 0.580
##  9 0.2      NA     0 0.4  
## 10 0.151    NA    10 0.198
## # … with 108,779 more rows

Example 2.2.2

Create a new variable that indicates whether or not a player played for a team currently in the National League Central Division (MIL, CIN, CHN, CIN, PIT).

batting %>% mutate(NLCentral = ifelse(teamID %in%c("MIL", "CIN", "CHN", "CIN", "PIT"), "Yes", "No")) %>%
  select(playerID,  yearID, teamID, NLCentral)

## # A tibble: 108,789 x 4
##    playerID  yearID teamID NLCentral
##    <chr>      <int> <fct>  <chr>    
##  1 abercda01   1871 TRO    No       
##  2 addybo01    1871 RC1    No       
##  3 allisar01   1871 CL1    No       
##  4 allisdo01   1871 WS3    No       
##  5 ansonca01   1871 RC1    No       
##  6 armstbo01   1871 FW1    No       
##  7 barkeal01   1871 RC1    No       
##  8 barnero01   1871 BS1    No       
##  9 barrebi01   1871 FW1    No       
## 10 barrofr01   1871 BS1    No       
## # … with 108,779 more rows
…
While overall summaries are sometimes useful, often it is far more useful to summarize by group. The group_by command allows us to calculate summary statistics broken down by group.

Calculate the number of homeruns (HR), hits (H), and at-bats (AB) for by each team, throughout baseball history.

When grouping, n() returns the number of observations in each group.

batting %>% group_by(teamID) %>% 
  summarize(HR = sum(HR),
            H= sum(H), 
            AB= sum(AB),
            Total_Player_Seasons = n()
  ) %>%
  arrange(desc(HR))

## # A tibble: 149 x 5
##    teamID    HR      H     AB Total_Player_Seasons
##    <fct>  <int>  <int>  <int>                <int>
##  1 NYA    16309 166924 626513                 4471
##  2 CHN    14449 194194 739897                 5060
##  3 DET    13904 169123 637722                 4413
##  4 BOS    13793 170584 638385                 4515
##  5 PHI    13321 187367 718794                 4971
##  6 CIN    13255 179875 688343                 4731
##  7 CLE    13228 168997 636579                 4683
##  8 SLN    12046 181892 682991                 4853
##  9 CHA    11606 164533 632007                 4476
## 10 PIT    11564 187060 706152                 4920
## # … with 139 more rows

While we might be interested in knowing the number of total player seasons for each team, it might be more interesting to know the number of different batters who have played for each team. We can accomplish this using the unique() function. The command unique(playerID) creates a vector of unique player ID's for each team. The length() command returns the length of each vector (i.e. number of different batters).

batting %>% group_by(teamID) %>% 
  summarize(HR = sum(HR),
            H= sum(H), 
            AB= sum(AB),
            Total_Batters = length(unique(playerID))
  ) %>%
  arrange(desc(HR))

## # A tibble: 149 x 5
##    teamID    HR      H     AB Total_Batters
##    <fct>  <int>  <int>  <int>         <int>
##  1 NYA    16309 166924 626513          1709
##  2 CHN    14449 194194 739897          2117
##  3 DET    13904 169123 637722          1718
##  4 BOS    13793 170584 638385          1838
##  5 PHI    13321 187367 718794          2103
##  6 CIN    13255 179875 688343          1977
##  7 CLE    13228 168997 636579          1917
##  8 SLN    12046 181892 682991          2024
##  9 CHA    11606 164533 632007          1807
## 10 PIT    11564 187060 706152          1945
## # … with 139 more rows
Example 2.2.7

Calculate each team's all-time batting average. Include only teams with at least 100,000 at-bats. Sort by batting average.

batting %>% group_by(teamID) %>% 
  summarize(HR = sum(HR),
            H= sum(H), 
            AB= sum(AB),
            Total_Batters = length(unique(playerID)),
            AVG = H / AB
  ) %>%
  filter(AB > 100000) %>%
  arrange(desc(AVG))

## # A tibble: 39 x 6
##    teamID    HR      H     AB Total_Batters   AVG
##    <fct>  <int>  <int>  <int>         <int> <dbl>
##  1 COL     5013  41243 150606           593 0.274
##  2 NY1     5776 103368 381156           894 0.271
##  3 BOS    13793 170584 638385          1838 0.267
##  4 BRO     4338  93508 350213           875 0.267
##  5 NYA    16309 166924 626513          1709 0.266
##  6 SLN    12046 181892 682991          2024 0.266
##  7 PHA     3502  74209 278843           783 0.266
##  8 CLE    13228 168997 636579          1917 0.265
##  9 DET    13904 169123 637722          1718 0.265
## 10 PIT    11564 187060 706152          1945 0.265
## # … with 29 more rows
…
Some of these teams do not exist anymore, while others came about more recently. Let's include the earliest and latest year that each team played.

batting %>% group_by(teamID) %>% 
  summarize(HR = sum(HR),
            H= sum(H), 
            AB= sum(AB),
            Total_Batters = length(unique(playerID)),
            AVG = H / AB,
            First_Year = min(yearID),
            Last_Year = max(yearID)
  ) %>%
  filter(AB > 100000) %>%
  arrange(desc(AVG))

## # A tibble: 39 x 8
##    teamID    HR      H     AB Total_Batters   AVG First_Year Last_Year
##    <fct>  <int>  <int>  <int>         <int> <dbl>      <int>     <int>
##  1 COL     5013  41243 150606           593 0.274       1993      2020
##  2 NY1     5776 103368 381156           894 0.271       1883      1957
##  3 BOS    13793 170584 638385          1838 0.267       1901      2020
##  4 BRO     4338  93508 350213           875 0.267       1890      1957
##  5 NYA    16309 166924 626513          1709 0.266       1903      2020
##  6 SLN    12046 181892 682991          2024 0.266       1892      2020
##  7 PHA     3502  74209 278843           783 0.266       1901      1954
##  8 CLE    13228 168997 636579          1917 0.265       1901      2020
##  9 DET    13904 169123 637722          1718 0.265       1901      2020
## 10 PIT    11564 187060 706152          1945 0.265       1887      2020
## # … with 29 more rows

Example 2.2.9

We can group by more than one variable. Let's calculate the number of hits, homeruns, and at-bats, and batting average for each team in each season.

batting %>% group_by(teamID, yearID) %>% 
  summarize(HR = sum(HR),
            H= sum(H), 
            AB= sum(AB),
            AVG = H / AB
  ) %>%
  arrange(desc(HR))

## # A tibble: 2,955 x 6
## # Groups:   teamID [149]
##    teamID yearID    HR     H    AB   AVG
##    <fct>   <int> <int> <int> <int> <dbl>
##  1 MIN      2019   307  1547  5732 0.270
##  2 NYA      2019   306  1493  5583 0.267
##  3 HOU      2019   288  1538  5613 0.274
##  4 LAN      2019   279  1414  5493 0.257
##  5 NYA      2018   267  1374  5515 0.249
##  6 SEA      1997   264  1574  5614 0.280
##  7 TEX      2005   260  1528  5716 0.267
##  8 BAL      1996   257  1557  5689 0.274
##  9 OAK      2019   257  1384  5561 0.249
## 10 TOR      2010   257  1364  5495 0.248
## # … with 2,945 more rows
…
