Chapter 5 Programming | Data-Scientific Programming Notes
…
starwars %>% arrange(desc(mass))

## # A tibble: 87 x 14
##    name    height  mass hair_color  skin_color eye_color birth_year sex   gender
##    <chr>    <int> <dbl> <chr>       <chr>      <chr>          <dbl> <chr> <chr> 
##  1 Jabba …    175  1358 <NA>        green-tan… orange         600   herm… mascu…
##  2 Grievo…    216   159 none        brown, wh… green, y…       NA   male  mascu…
##  3 IG-88      200   140 none        metal      red             15   none  mascu…
##  4 Darth …    202   136 none        white      yellow          41.9 male  mascu…
##  5 Tarfful    234   136 brown       brown      blue            NA   male  mascu…
##  6 Owen L…    178   120 brown, grey light      blue            52   male  mascu…
##  7 Bossk      190   113 none        green      red             53   male  mascu…
##  8 Chewba…    228   112 brown       unknown    blue           200   male  mascu…
##  9 Jek To…    180   110 brown       fair       blue            NA   male  mascu…
## 10 Dexter…    198   102 none        brown      yellow          NA   male  mascu…
## # … with 77 more rows, and 5 more variables: homeworld <chr>, species <chr>,
## #   films <list>, vehicles <list>, starships <list>
…
starwars %>% arrange(desc(height))

## # A tibble: 87 x 14
##    name    height  mass hair_color skin_color  eye_color birth_year sex   gender
##    <chr>    <int> <dbl> <chr>      <chr>       <chr>          <dbl> <chr> <chr> 
##  1 Yarael…    264    NA none       white       yellow          NA   male  mascu…
##  2 Tarfful    234   136 brown      brown       blue            NA   male  mascu…
##  3 Lama Su    229    88 none       grey        black           NA   male  mascu…
##  4 Chewba…    228   112 brown      unknown     blue           200   male  mascu…
##  5 Roos T…    224    82 none       grey        orange          NA   male  mascu…
##  6 Grievo…    216   159 none       brown, whi… green, y…       NA   male  mascu…
##  7 Taun We    213    NA none       grey        black           NA   fema… femin…
##  8 Rugor …    206    NA none       green       orange          NA   male  mascu…
##  9 Tion M…    206    80 none       grey        black           NA   male  mascu…
## 10 Darth …    202   136 none       white       yellow          41.9 male  mascu…
## # … with 77 more rows, and 5 more variables: homeworld <chr>, species <chr>,
## #   films <list>, vehicles <list>, starships <list>
…
starwars %>% arrange(desc(birth_year))

## # A tibble: 87 x 14
##    name    height  mass hair_color skin_color  eye_color birth_year sex   gender
##    <chr>    <int> <dbl> <chr>      <chr>       <chr>          <dbl> <chr> <chr> 
##  1 Yoda        66    17 white      green       brown            896 male  mascu…
##  2 Jabba …    175  1358 <NA>       green-tan,… orange           600 herm… mascu…
##  3 Chewba…    228   112 brown      unknown     blue             200 male  mascu…
##  4 C-3PO      167    75 <NA>       gold        yellow           112 none  mascu…
##  5 Dooku      193    80 white      fair        brown            102 male  mascu…
##  6 Qui-Go…    193    89 brown      fair        blue              92 male  mascu…
##  7 Ki-Adi…    198    82 white      pale        yellow            92 male  mascu…
##  8 Finis …    170    NA blond      fair        blue              91 male  mascu…
##  9 Palpat…    170    75 grey       pale        yellow            82 male  mascu…
## 10 Cliegg…    183    NA brown      fair        blue              82 male  mascu…
## # … with 77 more rows, and 5 more variables: homeworld <chr>, species <chr>,
## #   films <list>, vehicles <list>, starships <list>
…
